^C:\USERS\MICHEL\DOCUMENTS\VISUAL STUDIO 2015\PROJECTS\CONSOLEAPPLICATION1\CONSOLEAPPLICATION1\X64\DEBUG\CONSOLEAPPLICATION1.OBJ|C:\USERS\MICHEL\DOCUMENTS\VISUAL STUDIO 2015\PROJECTS\CONSOLEAPPLICATION1\CONSOLEAPPLICATION1\X64\DEBUG\STDAFX.OBJ
C:\USERS\MICHEL\DOCUMENTS\VISUAL STUDIO 2015\PROJECTS\CONSOLEAPPLICATION1\X64\DEBUG\CONSOLEAPPLICATION1.ILK
C:\USERS\MICHEL\DOCUMENTS\VISUAL STUDIO 2015\PROJECTS\CONSOLEAPPLICATION1\X64\DEBUG\CONSOLEAPPLICATION1.EXE
C:\USERS\MICHEL\DOCUMENTS\VISUAL STUDIO 2015\PROJECTS\CONSOLEAPPLICATION1\X64\DEBUG\CONSOLEAPPLICATION1.PDB
