^C:\USERS\MICHEL\DOCUMENTS\VISUAL STUDIO 2015\PROJECTS\CONSOLEAPPLICATION1\CONSOLEAPPLICATION1\STDAFX.CPP
/c /Zi /nologo /W3 /WX- /sdl /O2 /Oi /GL /D NDEBUG /D _CONSOLE /D _UNICODE /D UNICODE /Gm- /EHsc /MD /GS /Gy /fp:precise /Zc:wchar_t /Zc:forScope /Zc:inline /Yc"stdafx.h" /Fp"X64\RELEASE\CONSOLEAPPLICATION1.PCH" /Fo"X64\RELEASE\\" /Fd"X64\RELEASE\VC140.PDB" /Gd /TP C:\USERS\MICHEL\DOCUMENTS\VISUAL STUDIO 2015\PROJECTS\CONSOLEAPPLICATION1\CONSOLEAPPLICATION1\STDAFX.CPP
^C:\USERS\MICHEL\DOCUMENTS\VISUAL STUDIO 2015\PROJECTS\CONSOLEAPPLICATION1\CONSOLEAPPLICATION1\CONSOLEAPPLICATION1.CPP
/c /Zi /nologo /W3 /WX- /sdl /O2 /Oi /GL /D NDEBUG /D _CONSOLE /D _UNICODE /D UNICODE /Gm- /EHsc /MD /GS /Gy /fp:precise /Zc:wchar_t /Zc:forScope /Zc:inline /Yu"stdafx.h" /Fp"X64\RELEASE\CONSOLEAPPLICATION1.PCH" /Fo"X64\RELEASE\\" /Fd"X64\RELEASE\VC140.PDB" /Gd /TP C:\USERS\MICHEL\DOCUMENTS\VISUAL STUDIO 2015\PROJECTS\CONSOLEAPPLICATION1\CONSOLEAPPLICATION1\CONSOLEAPPLICATION1.CPP
